id_narasumber,npm,status
27,187842474,Aktif
62,185747080,Tidak Aktif
27,164709502,Tidak Aktif
140,198013102,Aktif
120,131199916,Aktif
70,177983957,Aktif
7,187555784,Tidak Aktif
48,188650093,Tidak Aktif
97,197263008,Tidak Aktif
56,119622553,Tidak Aktif
80,174577957,Tidak Aktif
131,158235901,Aktif
16,115706681,Tidak Aktif
20,118867213,Tidak Aktif
4,144526084,Tidak Aktif
112,163241078,Tidak Aktif
142,158170818,Aktif
121,197777790,Tidak Aktif
40,169285747,Tidak Aktif
134,118491412,Tidak Aktif
11,102758480,Tidak Aktif
60,121872426,Tidak Aktif
48,103025693,Tidak Aktif
137,126455296,Aktif
127,118476276,Tidak Aktif
38,123037529,Tidak Aktif
30,114278272,Tidak Aktif
104,147646629,Aktif
88,175843580,Tidak Aktif
105,191143602,Aktif
33,134632339,Tidak Aktif
29,138137342,Tidak Aktif
126,116263668,Tidak Aktif
135,179127302,Aktif
97,103276380,Aktif
5,102010407,Tidak Aktif
54,121687217,Aktif
31,157407451,Aktif
101,123830096,Aktif
104,140445317,Aktif
4,161943098,Tidak Aktif
30,172704812,Aktif
62,148136230,Tidak Aktif
140,118933822,Aktif
76,161406575,Aktif
90,104515594,Aktif
144,181166577,Aktif
48,117399037,Aktif
54,160185675,Aktif
79,131438144,Aktif
117,106609924,Tidak Aktif
76,116188315,Aktif
26,188745671,Aktif
44,112683458,Tidak Aktif
95,194954355,Tidak Aktif
26,148440346,Tidak Aktif
43,133305502,Tidak Aktif
64,118057687,Aktif
146,145330100,Tidak Aktif
136,162719331,Aktif
43,110679406,Tidak Aktif
107,169012901,Tidak Aktif
94,125877516,Aktif
79,146444175,Aktif
54,114794774,Tidak Aktif
141,134299889,Aktif
19,149095367,Aktif
78,135835322,Aktif
71,189543440,Aktif
106,196435085,Aktif
48,148530488,Aktif
7,139627600,Tidak Aktif
50,161392573,Tidak Aktif
11,158010766,Tidak Aktif
128,185005980,Aktif
33,119579876,Tidak Aktif
59,166357779,Aktif
107,137134918,Tidak Aktif
149,183617015,Aktif
55,141444919,Aktif
25,154010409,Tidak Aktif
97,176096226,Aktif
66,106133062,Tidak Aktif
61,138220501,Tidak Aktif
30,113622348,Aktif
120,181064137,Tidak Aktif
52,183886557,Aktif
35,157166085,Aktif
46,184008610,Aktif
77,196667871,Tidak Aktif
36,145174146,Tidak Aktif
129,180466489,Aktif
42,120236061,Tidak Aktif
107,180155761,Aktif
68,155397897,Aktif
42,157975752,Aktif
128,119513214,Aktif
75,188971029,Aktif
130,163165794,Tidak Aktif
93,105988204,Tidak Aktif
