url_berita,ip_address,nilai
https://mayoclinic.com,111.217.194.108,3.3
http://lulu.com,199.121.175.130,4.5
http://narod.ru,226.2.137.176,1.1
https://ameblo.jp,206.70.188.84,1.1
https://constantcontact.com,67.194.208.219,4.1
http://typepad.com,128.95.87.102,4.7
https://census.gov,219.106.201.154,4.3
http://zimbio.com,9.81.33.100,3.8
https://plala.or.jp,191.197.43.186,2.6
http://webnode.com,27.246.6.145,4.5
http://1688.com,191.58.52.104,3.6
https://posterous.com,11.178.151.245,4.2
https://msn.com,141.118.53.130,2.7
https://shutterfly.com,226.242.139.235,3.8
https://slashdot.org,137.101.72.91,4.1
http://flavors.me,62.15.197.217,3.9
http://springer.com,94.250.128.27,4.8
https://mayoclinic.com,205.57.8.143,2.3
https://boston.com,27.241.232.162,4.5
https://cam.ac.uk,18.250.143.198,4.4
https://constantcontact.com,29.111.56.157,2.6
http://blogspot.com,71.21.65.39,2.9
http://desdev.cn,173.88.51.184,2.2
http://patch.com,129.85.175.237,4.2
http://upenn.edu,247.230.173.208,2.2
https://indiegogo.com,144.157.82.120,3.7
http://privacy.gov.au,48.27.88.31,1.4
https://goodreads.com,53.166.4.124,4.0
https://umich.edu,97.170.115.151,2.6
http://narod.ru,46.87.197.132,1.3
http://guardian.co.uk,233.15.187.124,1.0
http://upenn.edu,114.147.118.174,4.6
https://furl.net,79.4.11.48,4.5
https://shutterfly.com,89.177.245.250,4.6
https://prnewswire.com,54.243.11.40,4.1
http://e-recht24.de,186.53.89.16,3.0
https://blogspot.com,87.243.56.87,2.0
https://shutterfly.com,195.147.175.248,1.2
http://fema.gov,41.12.249.242,1.6
http://1688.com,227.205.138.152,2.1
http://infoseek.co.jp,4.127.123.223,1.0
https://craigslist.org,88.42.166.80,3.2
https://utexas.edu,102.64.2.82,2.3
http://flavors.me,192.103.94.203,4.4
https://blogspot.com,46.249.246.121,1.4
http://tinypic.com,153.171.213.90,3.2
https://prnewswire.com,232.181.121.173,2.3
https://blogtalkradio.com,141.174.248.63,4.5
http://lulu.com,33.163.99.195,3.7
https://indiegogo.com,173.150.180.217,2.5
https://csmonitor.com,49.85.220.199,5.0
https://ameblo.jp,202.148.23.31,3.2
http://privacy.gov.au,47.181.40.225,4.4
https://redcross.org,132.200.68.180,1.3
https://furl.net,84.167.101.24,4.1
https://blogspot.com,0.198.138.56,3.0
http://hubpages.com,12.23.155.189,1.0
http://desdev.cn,183.178.32.122,2.5
http://desdev.cn,193.90.245.5,2.3
https://about.me,209.14.123.115,3.4
https://addtoany.com,242.7.208.139,4.4
https://tinypic.com,186.129.189.67,2.9
http://guardian.co.uk,194.193.218.57,3.0
https://sbwire.com,101.78.250.165,3.2
https://squidoo.com,79.90.219.68,3.3
https://boston.com,176.124.189.3,2.9
http://barnesandnoble.com,62.49.112.130,3.3
https://about.me,3.15.96.3,2.5
http://blogspot.com,62.53.16.249,1.6
https://state.tx.us,133.30.160.25,1.4
https://microsoft.com,190.117.48.16,2.8
https://netlog.com,13.155.61.29,1.8
https://umich.edu,187.45.124.169,1.0
https://godaddy.com,114.184.58.30,2.2
https://squidoo.com,126.249.106.218,3.3
http://guardian.co.uk,53.147.232.160,3.7
http://geocities.com,182.61.45.170,2.2
http://webnode.com,71.76.201.108,2.1
http://cargocollective.com,172.219.166.117,2.4
https://census.gov,34.252.62.242,1.8
https://netlog.com,146.57.144.143,2.2
http://guardian.co.uk,91.210.115.111,3.0
https://state.tx.us,135.45.27.227,3.6
https://msn.com,162.201.170.105,3.1
http://oakley.com,58.68.103.120,2.6
http://eventbrite.com,48.92.247.186,2.2
https://posterous.com,14.144.187.18,4.2
https://yolasite.com,55.36.224.118,4.2
http://friendfeed.com,124.170.8.206,3.2
http://clickbank.net,147.190.123.162,4.7
https://umich.edu,131.145.203.215,4.8
https://narod.ru,153.129.51.157,3.1
http://china.com.cn,214.21.42.55,2.1
http://cargocollective.com,55.58.174.219,1.7
https://squidoo.com,155.218.100.187,2.3
https://clickbank.net,157.215.0.127,2.9
http://hubpages.com,110.175.157.224,2.0
https://mayoclinic.com,55.250.133.245,4.0
https://prnewswire.com,195.84.216.18,1.3
http://bandcamp.com,254.58.197.132,1.4
https://tinypic.com,60.201.39.120,1.3
http://patch.com,241.147.255.21,4.8
https://craigslist.org,78.191.47.147,2.3
http://goo.ne.jp,229.26.41.86,4.5
https://netlog.com,79.37.88.128,1.8
http://clickbank.net,140.126.57.236,4.4
https://google.de,30.55.135.197,4.4
http://infoseek.co.jp,170.251.129.17,2.5
https://ca.gov,115.90.166.133,3.2
http://bandcamp.com,119.181.47.181,2.9
https://patch.com,127.11.214.187,2.7
https://yolasite.com,98.188.144.244,2.8
https://about.me,27.241.159.52,3.0
https://blogtalkradio.com,144.107.194.135,1.3
http://springer.com,70.86.42.230,2.4
http://ezinearticles.com,246.49.27.172,4.1
https://cam.ac.uk,88.77.116.91,4.3
http://lycos.com,73.148.252.32,1.0
http://liveinternet.ru,123.6.245.141,4.7
http://elpais.com,27.184.221.232,4.6
https://slashdot.org,121.162.212.202,4.1
http://webnode.com,122.65.194.196,2.3
http://hubpages.com,38.66.62.2,3.1
http://ox.ac.uk,148.161.176.151,1.0
https://geocities.jp,197.148.218.238,4.6
